MLB Ballpark Factors
…
mlbdata

## # A tibble: 150 x 12
##     year  rank                                               park_name
##    <int> <int>                                                   <chr>
##  1  2013     1                    "Coors Field\Ue8125bb6er, Colorado)"
##  2  2013     2                 "Wrigley Field\Ue80e8a63ago, Illinois)"
##  3  2013     3                 "Comerica Park\Ue8125d32oit, Michigan)"
##  4  2013     4                  "Rogers Centre\Ue852fcafnto, Ontario)"
##  5  2013     5                "Miller Park\Ue8369b37aukee, Wisconsin)"
##  6  2013     6   "Citizens Bank Park\Ue8428a6cadelphia, Pennsylvania)"
##  7  2013     7               "Yankee Stadium\Ue83a5de0York, New York)"
##  8  2013     8          "Kauffman Stadium\Ue82e1bb3as City, Missouri)"
##  9  2013     9                 "Minute Maid Park\Ue822fd73ton, Texas)"
## 10  2013    10 "Oriole Park at Camden Yards\Ue80a1b34imore, Maryland)"
## # ... with 140 more rows, and 9 more variables: runs <dbl>, hr <dbl>,
## #   h <dbl>, doubles <dbl>, triples <dbl>, bb <dbl>, elevation <int>,
## #   avg_wall_distance <dbl>, abbrev <chr>
…
